{"failedCount":0,"prefixedPath":"src\/test\/java\/com\/prime\/resources\/getapi.feature","packageQualifiedName":"src.test.java.com.prime.resources.getapi","loopIndex":-1,"relativePath":"src\/test\/java\/com\/prime\/resources\/getapi.feature","scenarioResults":[{"sectionIndex":1,"stepResults":[{"result":{"nanos":272946300,"millis":272.9463,"status":"passed"},"step":{"background":true,"line":4,"prefix":"*","index":0,"text":"url 'https:\/\/reqres.in\/api'"}},{"result":{"nanos":23091300,"millis":23.0913,"status":"passed"},"step":{"background":true,"line":5,"prefix":"*","index":1,"text":"headers Accept = 'application\/json'"},"stepLog":"15:57:56.022 did not evaluate to map Accept = 'application\/json': [type: STRING, value: application\/json]\n"},{"result":{"nanos":1056800,"millis":1.0568,"status":"passed"},"step":{"line":14,"prefix":"Given","index":0,"text":"path '\/users?page=2'"}},{"result":{"nanos":2177028600,"millis":2177.0286,"status":"passed"},"step":{"line":15,"prefix":"When","index":1,"text":"method GET"},"stepLog":"15:57:57.717 request:\n1 > GET https:\/\/reqres.in\/api\/users%3Fpage=2\n1 > Host: reqres.in\n1 > Connection: Keep-Alive\n1 > User-Agent: Apache-HttpClient\/4.5.13 (Java\/1.8.0_121)\n1 > Accept-Encoding: gzip,deflate\n\n\n15:57:58.136 response time in milliseconds: 415\n1 < 200\n1 < Date: Sat, 10 Jun 2023 14:57:57 GMT\n1 < Content-Type: application\/json; charset=utf-8\n1 < Transfer-Encoding: chunked\n1 < Connection: keep-alive\n1 < X-Powered-By: Express\n1 < Access-Control-Allow-Origin: *\n1 < Etag: W\/\"2c1-N6Rqerxquq2kgQhL51EiSg4x0R8\"\n1 < Via: 1.1 vegur\n1 < Cache-Control: max-age=14400\n1 < CF-Cache-Status: HIT\n1 < Age: 266\n1 < Report-To: {\"endpoints\":[{\"url\":\"https:\\\/\\\/a.nel.cloudflare.com\\\/report\\\/v3?s=3LqZ3cNapWyCcSSuNwpGtNK%2FFvPTD3rKyQgUDKku6AxbdlPi6y1GKntOgjyq4XkbaOLngZJRGGx%2ByXmLtcdwodR98BGbLpaf%2B1GqreUK8%2FqUqrljyeHI61rzhQ%3D%3D\"}],\"group\":\"cf-nel\",\"max_age\":604800}\n1 < NEL: {\"success_fraction\":0,\"report_to\":\"cf-nel\",\"max_age\":604800}\n1 < Vary: Accept-Encoding\n1 < Server: cloudflare\n1 < CF-RAY: 7d5278404c67769b-LHR\n{\"page\":1,\"per_page\":6,\"total\":12,\"total_pages\":2,\"data\":[{\"id\":1,\"name\":\"cerulean\",\"year\":2000,\"color\":\"#98B2D1\",\"pantone_value\":\"15-4020\"},{\"id\":2,\"name\":\"fuchsia rose\",\"year\":2001,\"color\":\"#C74375\",\"pantone_value\":\"17-2031\"},{\"id\":3,\"name\":\"true red\",\"year\":2002,\"color\":\"#BF1932\",\"pantone_value\":\"19-1664\"},{\"id\":4,\"name\":\"aqua sky\",\"year\":2003,\"color\":\"#7BC4C4\",\"pantone_value\":\"14-4811\"},{\"id\":5,\"name\":\"tigerlily\",\"year\":2004,\"color\":\"#E2583E\",\"pantone_value\":\"17-1456\"},{\"id\":6,\"name\":\"blue turquoise\",\"year\":2005,\"color\":\"#53B0AE\",\"pantone_value\":\"15-5217\"}],\"support\":{\"url\":\"https:\/\/reqres.in\/#support-heading\",\"text\":\"To keep ReqRes free, contributions towards server costs are appreciated!\"}}\n\n"},{"result":{"nanos":20500,"millis":0.0205,"status":"passed"},"step":{"line":16,"prefix":"Then","index":2,"text":"status 200"}},{"result":{"nanos":107031700,"millis":107.0317,"status":"passed"},"step":{"line":17,"prefix":"And","index":3,"text":"match response.data[0].name == 'cerulean'"}}],"executorName":"main","line":13,"name":"Get Demo2","description":"","durationMillis":2581.1752,"startTime":1686409075679,"failed":false,"refId":"[2:13]","endTime":1686409078309,"exampleIndex":-1}],"callDepth":0,"name":"Get API Demo","description":"","resultDate":"2023-06-10 03:57:58 PM","durationMillis":2581.1752,"passedCount":1}